{
  "images" : [
    {
      "idiom" : "universal",
      "scale" : "1x",
      "filename" : "default_placeholder.png"
    },
    {
      "idiom" : "universal",
      "scale" : "2x",
      "filename" : "default_placeholder@2x.png"
    },
    {
      "idiom" : "universal",
      "scale" : "3x",
      "filename" : "default_placeholder@3x.png"
    },
    {
      "idiom" : "universal",
      "filename" : "default_placeholder-667h@2x.png",
      "unassigned" : true,
      "subtype" : "667h",
      "scale" : "2x"
    }
  ],
  "info" : {
    "version" : 1,
    "author" : "xcode"
  }
}